<?xml version="1.0" encoding="UTF-8" standalone="no"?>
<!-- Created with Inkscape (http://www.inkscape.org/) -->

<svg
   xmlns:dc="http://purl.org/dc/elements/1.1/"
   xmlns:cc="http://creativecommons.org/ns#"
   xmlns:rdf="http://www.w3.org/1999/02/22-rdf-syntax-ns#"
   xmlns:svg="http://www.w3.org/2000/svg"
   xmlns="http://www.w3.org/2000/svg"
   xmlns:sodipodi="http://sodipodi.sourceforge.net/DTD/sodipodi-0.dtd"
   xmlns:inkscape="http://www.inkscape.org/namespaces/inkscape"
   width="108.81562pt"
   height="68.373123pt"
   viewBox="0 0 38.387734 24.120518"
   version="1.1"
   id="svg8"
   inkscape:version="0.92.3 (2405546, 2018-03-11)"
   sodipodi:docname="WithoutAnalysis.svg"
   inkscape:export-filename="/golem/svoboda/Dirigent/Management/imgs/Commons/WithoutAnalysis.png"
   inkscape:export-xdpi="90"
   inkscape:export-ydpi="90">
  <defs
     id="defs2" />
  <sodipodi:namedview
     id="base"
     pagecolor="#ffffff"
     bordercolor="#666666"
     borderopacity="1.0"
     inkscape:pageopacity="0.0"
     inkscape:pageshadow="2"
     inkscape:zoom="4.1315071"
     inkscape:cx="-14.945068"
     inkscape:cy="57.241582"
     inkscape:document-units="mm"
     inkscape:current-layer="layer1"
     showgrid="false"
     units="pt"
     inkscape:window-width="1920"
     inkscape:window-height="995"
     inkscape:window-x="0"
     inkscape:window-y="0"
     inkscape:window-maximized="1"
     fit-margin-top="0"
     fit-margin-left="0"
     fit-margin-right="0"
     fit-margin-bottom="0" />
  <metadata
     id="metadata5">
    <rdf:RDF>
      <cc:Work
         rdf:about="">
        <dc:format>image/svg+xml</dc:format>
        <dc:type
           rdf:resource="http://purl.org/dc/dcmitype/StillImage" />
        <dc:title />
      </cc:Work>
    </rdf:RDF>
  </metadata>
  <g
     inkscape:label="Layer 1"
     inkscape:groupmode="layer"
     id="layer1"
     transform="translate(-0.57627912,-258.80103)">
    <text
       xml:space="preserve"
       style="font-style:normal;font-weight:normal;font-size:5.89418697px;line-height:0.75;font-family:sans-serif;text-align:center;letter-spacing:0px;word-spacing:0px;text-anchor:middle;fill:#000000;fill-opacity:1;stroke:none;stroke-width:0.44206402"
       x="19.907959"
       y="267.13266"
       id="text18"><tspan
         sodipodi:role="line"
         x="19.907959"
         y="267.13266"
         style="font-style:normal;font-variant:normal;font-weight:bold;font-stretch:normal;font-size:3.57128763px;line-height:0.75;font-family:'Century Schoolbook L';-inkscape-font-specification:'Century Schoolbook L Bold';text-align:center;text-anchor:middle;stroke-width:0.44206402"
         id="tspan13">Without</tspan><tspan
         sodipodi:role="line"
         x="19.907959"
         y="271.55331"
         style="font-style:normal;font-variant:normal;font-weight:bold;font-stretch:normal;font-size:3.57128763px;line-height:0.75;font-family:'Century Schoolbook L';-inkscape-font-specification:'Century Schoolbook L Bold';text-align:center;text-anchor:middle;stroke-width:0.44206402"
         id="tspan37">Analysis</tspan></text>
  </g>
</svg>
