[
    {
        "DataFilePath": "VIS_TG_{shot}.h5",
        "IntegrationTime_us": 1600,
        "SerialNumber": "HR+C1886",
        "Spectra": 15,
        "SpectrometerName": "VIS_TG",
        "TriggerType": "Hardware"
    },
    {
        "DataFilePath": "UV_IPP_{shot}.h5",
        "IntegrationTime_us": 1600,
        "SerialNumber": "HR2+C1103",
        "Spectra": 15,
        "SpectrometerName": "UV_IPP",
        "TriggerType": "Hardware"
    },
    {
        "DataFilePath": "VIS_IPP_{shot}.h5",
        "IntegrationTime_us": 1600,
        "SerialNumber": "HR+C0732",
        "Spectra": 15,
        "SpectrometerName": "VIS_IPP",
        "TriggerType": "Hardware"
    },
    {
        "DataFilePath": "IR_IPP_{shot}.h5",
        "IntegrationTime_us": 1600,
        "SerialNumber": "HR+C2729",
        "Spectra": 15,
        "SpectrometerName": "IR_IPP",
        "TriggerType": "Hardware"
    }
]
