<?xml version="1.0" encoding="UTF-8" standalone="no"?>
<!-- Created with Inkscape (http://www.inkscape.org/) -->

<svg
   xmlns:dc="http://purl.org/dc/elements/1.1/"
   xmlns:cc="http://creativecommons.org/ns#"
   xmlns:rdf="http://www.w3.org/1999/02/22-rdf-syntax-ns#"
   xmlns:svg="http://www.w3.org/2000/svg"
   xmlns="http://www.w3.org/2000/svg"
   version="1.1"
   width="233.85809"
   height="36.127373"
   id="svg3623"
   xml:space="preserve"><metadata
     id="metadata3629"><rdf:RDF><cc:Work
         rdf:about=""><dc:format>image/svg+xml</dc:format><dc:type
           rdf:resource="http://purl.org/dc/dcmitype/StillImage" /><dc:title></dc:title></cc:Work></rdf:RDF></metadata><defs
     id="defs3627" /><g
     transform="matrix(1.25,0,0,-1.25,0,36.127374)"
     id="g3631"><g
       id="g3633"><path
         d="M 112.215,14.453 88.488,13.441 c 0,0.355 0.059,0.711 0,1.012 0.059,0.355 0.059,0.711 0,1.007 l 23.727,-1.007"
         id="path3635"
         style="fill:#a7a5a6;fill-opacity:1;fill-rule:evenodd;stroke:none" /><path
         d="M 108.293,12.191 88.371,11.179 c 0.059,0.656 0.117,1.367 0.117,2.024 l 19.805,-1.012"
         id="path3637"
         style="fill:#a7a5a6;fill-opacity:1;fill-rule:evenodd;stroke:none" /><path
         d="M 104.902,9.992 88.074,9.039 c 0.117,0.656 0.235,1.308 0.235,1.902 l 16.593,-0.949"
         id="path3639"
         style="fill:#a7a5a6;fill-opacity:1;fill-rule:evenodd;stroke:none" /><path
         d="M 100.262,7.73 87.598,6.718 c 0.175,0.657 0.297,1.309 0.414,1.907 l 12.25,-0.895"
         id="path3641"
         style="fill:#a7a5a6;fill-opacity:1;fill-rule:evenodd;stroke:none" /><path
         d="M 95.742,5.472 86.941,4.519 c 0.239,0.594 0.418,1.191 0.594,1.785 l 8.207,-0.832"
         id="path3643"
         style="fill:#a7a5a6;fill-opacity:1;fill-rule:evenodd;stroke:none" /><path
         d="m 92.059,3.269 -5.95,-1.008 c 0.239,0.594 0.536,1.188 0.715,1.844 l 5.235,-0.836"
         id="path3645"
         style="fill:#a7a5a6;fill-opacity:1;fill-rule:evenodd;stroke:none" /><path
         d="M 87.773,1.128 84.859,0 c 0.36,0.593 0.715,1.25 1.071,1.902 l 1.843,-0.774"
         id="path3647"
         style="fill:#a7a5a6;fill-opacity:1;fill-rule:evenodd;stroke:none" /><path
         d="M 108.293,16.71 88.488,15.757 c 0,0.657 -0.058,1.309 -0.117,1.965 l 19.922,-1.012"
         id="path3649"
         style="fill:#a7a5a6;fill-opacity:1;fill-rule:evenodd;stroke:none" /><path
         d="M 104.902,18.91 88.309,17.96 c 0,0.653 -0.118,1.309 -0.235,1.903 l 16.828,-0.953"
         id="path3651"
         style="fill:#a7a5a6;fill-opacity:1;fill-rule:evenodd;stroke:none" /><path
         d="m 100.262,21.171 -12.25,-0.89 c -0.117,0.652 -0.239,1.304 -0.414,1.902 l 12.664,-1.012"
         id="path3653"
         style="fill:#a7a5a6;fill-opacity:1;fill-rule:evenodd;stroke:none" /><path
         d="m 95.742,23.492 -8.207,-0.895 c -0.176,0.594 -0.355,1.25 -0.531,1.785 l 8.738,-0.89"
         id="path3655"
         style="fill:#a7a5a6;fill-opacity:1;fill-rule:evenodd;stroke:none" /><path
         d="m 92.059,25.632 -5.235,-0.836 c -0.179,0.657 -0.418,1.25 -0.715,1.844 l 5.95,-1.008"
         id="path3657"
         style="fill:#a7a5a6;fill-opacity:1;fill-rule:evenodd;stroke:none" /><path
         d="M 87.773,27.773 85.93,27 c -0.297,0.71 -0.653,1.308 -1.071,1.902 l 2.914,-1.129"
         id="path3659"
         style="fill:#a7a5a6;fill-opacity:1;fill-rule:evenodd;stroke:none" /><path
         d="m 124.168,18.496 -5.469,-8.625 -1.308,8.625 -1.547,0 1.605,-10.11 1.664,0 6.602,10.11 -1.547,0"
         id="path3661"
         style="fill:#231f20;fill-opacity:1;fill-rule:evenodd;stroke:none" /><path
         d="m 123.395,8.386 7.195,10.11 1.668,0 2.14,-10.11 -1.726,0 -0.594,2.617 -5.234,0 -1.844,-2.617 -1.605,0 z m 4.285,3.864 4.222,0 -0.894,4.878 -3.328,-4.878"
         id="path3663"
         style="fill:#231f20;fill-opacity:1;fill-rule:evenodd;stroke:none" /><path
         d="m 146.59,15.878 c 0.238,1.844 -1.129,2.793 -3.332,2.856 -3.688,0.117 -5.649,-2.797 -6.242,-5.293 -0.657,-2.797 0.117,-5.234 3.39,-5.234 2.199,0 4.399,1.128 4.934,2.796 l -1.664,0 c -0.418,-1.07 -1.606,-1.605 -2.856,-1.605 -2.437,0 -2.617,1.961 -2.14,4.043 0.414,1.781 1.488,4.102 4.222,4.102 1.188,0 2.2,-0.653 2.02,-1.665 l 1.668,0"
         id="path3665"
         style="fill:#231f20;fill-opacity:1;fill-rule:evenodd;stroke:none" /><path
         d="m 159.375,18.496 -1.547,0 -1.547,-6.422 c -0.476,-1.727 -1.843,-2.676 -3.625,-2.676 -1.726,0 -2.679,0.949 -2.32,2.676 l 1.547,6.422 -1.547,0 -1.488,-6.067 c -0.653,-2.617 0.476,-4.222 3.511,-4.222 3.09,0 4.993,1.605 5.59,4.222 l 1.426,6.067"
         id="path3667"
         style="fill:#231f20;fill-opacity:1;fill-rule:evenodd;stroke:none" /><path
         d="m 171.684,18.496 -1.547,0 -1.547,-6.422 c -0.473,-1.727 -1.84,-2.676 -3.625,-2.676 -1.727,0 -2.676,0.949 -2.32,2.676 l 1.546,6.422 -1.546,0 -1.485,-6.067 c -0.656,-2.617 0.473,-4.222 3.508,-4.222 3.09,0 4.996,1.605 5.59,4.222 l 1.426,6.067"
         id="path3669"
         style="fill:#231f20;fill-opacity:1;fill-rule:evenodd;stroke:none" /><path
         d="m 183.102,8.386 1.546,0 2.438,10.11 -2.617,0 -5.172,-8.328 -0.059,0 -1.191,8.328 -2.793,0 -2.438,-10.11 1.543,0 2.2,9.098 1.429,-9.098 1.485,0 5.769,9.098 0.059,0 -2.199,-9.098"
         id="path3671"
         style="fill:#231f20;fill-opacity:1;fill-rule:evenodd;stroke:none" /><path
         d="m 0,8.445 0,10.406 3.566,0 c 2.559,0 4.7,-0.535 4.7,-3.211 0,-1.844 -1.368,-3.094 -3.985,-3.152 l -1.785,0 0,-4.043 -2.496,0 z m 2.496,5.769 c 1.371,0.059 3.152,-0.418 3.152,1.426 0,1.844 -1.781,1.426 -3.152,1.488 l 0,-2.914"
         id="path3673"
         style="fill:#c40f3a;fill-opacity:1;fill-rule:evenodd;stroke:none" /><path
         d="m 13.5,8.445 0,4.461 4.637,0 0,1.722 -4.637,0 0,2.5 4.996,0 0,1.723 -7.434,0 0,-10.406 2.438,0"
         id="path3675"
         style="fill:#c40f3a;fill-opacity:1;fill-rule:evenodd;stroke:none" /><path
         d="m 21.824,8.445 7.91,0 0,1.723 -5.41,0 0,2.796 4.875,0 0,1.723 -4.875,0 0,2.441 5.231,0 0,1.723 -7.731,0 0,-10.406"
         id="path3677"
         style="fill:#c40f3a;fill-opacity:1;fill-rule:evenodd;stroke:none" /><path
         d="m 33.539,18.851 2.5,0 0,-10.406 -2.5,0 0,10.406 z"
         id="path3679"
         style="fill:#c40f3a;fill-opacity:1;fill-rule:evenodd;stroke:none" /><path
         d="m 42.52,8.445 0,4.461 4.636,0 0,1.722 -4.636,0 0,2.5 4.996,0 0,1.723 -7.434,0 0,-10.406 2.438,0"
         id="path3681"
         style="fill:#c40f3a;fill-opacity:1;fill-rule:evenodd;stroke:none" /><path
         d="m 53.281,8.445 0,4.461 4.641,0 0,1.722 -4.641,0 0,2.5 4.938,0 0,1.723 -7.434,0 0,-10.406 2.496,0"
         id="path3683"
         style="fill:#c40f3a;fill-opacity:1;fill-rule:evenodd;stroke:none" /><path
         d="m 61.371,8.445 7.91,0 0,1.723 -5.414,0 0,2.796 4.938,0 0,1.723 -4.938,0 0,2.441 5.293,0 0,1.723 -7.789,0 0,-10.406"
         id="path3685"
         style="fill:#c40f3a;fill-opacity:1;fill-rule:evenodd;stroke:none" /><path
         d="m 75.348,17.128 2.078,0 c 1.133,0 1.726,-0.418 1.726,-1.308 0,-0.953 -0.593,-1.43 -1.726,-1.43 l -2.078,0 0,2.738 z m 0,-4.46 2.613,0 c 0.836,-0.059 1.012,-0.833 1.07,-1.43 0.121,-0.891 0.239,-1.84 0.418,-2.793 l 2.735,0 c -0.473,0.594 -0.536,1.844 -0.653,2.496 -0.238,1.43 -0.238,2.5 -2.14,2.676 1.425,0.301 2.437,1.191 2.379,2.5 0.058,2.14 -1.965,2.734 -3.985,2.734 l -4.937,0 0,-10.406 2.5,0 0,4.223"
         id="path3687"
         style="fill:#c40f3a;fill-opacity:1;fill-rule:evenodd;stroke:none" /></g></g></svg>