[
    {
        "DataFilePath": "IRVISUV_{shot}.h5",
        "IntegrationTime_us": 2000,
        "SerialNumber": "HR+C1886",
        "Spectra": 20,
        "SpectrometerName": "IRVISUV",
        "TriggerType": "Hardware"
    },
    {
        "DataFilePath": "Halpha_{shot}.h5",
        "IntegrationTime_us": 2000,
        "SerialNumber": "HR+C1834",
        "Spectra": 20,
        "SpectrometerName": "Halpha",
        "TriggerType": "Hardware"
    },
    {
        "DataFilePath": "VIS_{shot}.h5",
        "IntegrationTime_us": 2000,
        "SerialNumber": "HR+C0732",
        "Spectra": 20,
        "SpectrometerName": "VIS",
        "TriggerType": "Hardware"
    },
    {
        "DataFilePath": "IR_{shot}.h5",
        "IntegrationTime_us": 2000,
        "SerialNumber": "HR+C2729",
        "Spectra": 20,
        "SpectrometerName": "IR",
        "TriggerType": "Hardware"
    },
    {
        "DataFilePath": "UV_{shot}.h5",
        "IntegrationTime_us": 2000,
        "SerialNumber": "HR2+C1103",
        "Spectra": 20,
        "SpectrometerName": "UV",
        "TriggerType": "Hardware"
    }
]
