<?xml version="1.0" encoding="UTF-8" standalone="no"?>
<!-- Created with Inkscape (http://www.inkscape.org/) -->

<svg
   xmlns:dc="http://purl.org/dc/elements/1.1/"
   xmlns:cc="http://creativecommons.org/ns#"
   xmlns:rdf="http://www.w3.org/1999/02/22-rdf-syntax-ns#"
   xmlns:svg="http://www.w3.org/2000/svg"
   xmlns="http://www.w3.org/2000/svg"
   xmlns:xlink="http://www.w3.org/1999/xlink"
   xmlns:sodipodi="http://sodipodi.sourceforge.net/DTD/sodipodi-0.dtd"
   xmlns:inkscape="http://www.inkscape.org/namespaces/inkscape"
   width="756.02655"
   height="756.02655"
   id="svg4507"
   version="1.1"
   inkscape:version="0.92.3 (2405546, 2018-03-11)"
   sodipodi:docname="expsetup.svg"
   inkscape:export-filename="/golem/svoboda/Dirigent/Diagnostics/MHDring-T/Depositary/setup.png"
   inkscape:export-xdpi="15.842811"
   inkscape:export-ydpi="15.842811"
   viewBox="0 0 708.77489 708.77487">
  <defs
     id="defs4509">
    <linearGradient
       inkscape:collect="always"
       id="linearGradient9141">
      <stop
         style="stop-color:#ff0000;stop-opacity:1;"
         offset="0"
         id="stop9143" />
      <stop
         style="stop-color:#ff0000;stop-opacity:0;"
         offset="1"
         id="stop9145" />
    </linearGradient>
    <marker
       inkscape:stockid="Arrow1Mstart"
       orient="auto"
       refY="0"
       refX="0"
       id="Arrow1Mstart"
       style="overflow:visible">
      <path
         id="path3949"
         d="M 0,0 5,-5 -12.5,0 5,5 Z"
         style="fill-rule:evenodd;stroke:#000000;stroke-width:1.00000003pt"
         transform="matrix(0.4,0,0,0.4,4,0)"
         inkscape:connector-curvature="0" />
    </marker>
    <marker
       inkscape:stockid="Arrow1Send"
       orient="auto"
       refY="0"
       refX="0"
       id="Arrow1Send"
       style="overflow:visible">
      <path
         id="path3958"
         d="M 0,0 5,-5 -12.5,0 5,5 Z"
         style="fill-rule:evenodd;stroke:#000000;stroke-width:1.00000003pt"
         transform="matrix(-0.2,0,0,-0.2,-1.2,0)"
         inkscape:connector-curvature="0" />
    </marker>
    <marker
       inkscape:stockid="Arrow1Mend"
       orient="auto"
       refY="0"
       refX="0"
       id="Arrow1Mend"
       style="overflow:visible">
      <path
         id="path3952"
         d="M 0,0 5,-5 -12.5,0 5,5 Z"
         style="fill-rule:evenodd;stroke:#000000;stroke-width:1.00000003pt"
         transform="matrix(-0.4,0,0,-0.4,-4,0)"
         inkscape:connector-curvature="0" />
    </marker>
    <marker
       inkscape:stockid="Arrow2Mend"
       orient="auto"
       refY="0"
       refX="0"
       id="Arrow2Mend"
       style="overflow:visible">
      <path
         id="path3970"
         style="fill-rule:evenodd;stroke-width:0.625;stroke-linejoin:round"
         d="M 8.7185878,4.0337352 -2.2072895,0.01601326 8.7185884,-4.0017078 c -1.7454984,2.3720609 -1.7354408,5.6174519 -6e-7,8.035443 z"
         transform="scale(-0.6)"
         inkscape:connector-curvature="0" />
    </marker>
    <marker
       inkscape:stockid="Arrow1Lend"
       orient="auto"
       refY="0"
       refX="0"
       id="Arrow1Lend"
       style="overflow:visible">
      <path
         id="path3946"
         d="M 0,0 5,-5 -12.5,0 5,5 Z"
         style="fill-rule:evenodd;stroke:#000000;stroke-width:1.00000003pt"
         transform="matrix(-0.8,0,0,-0.8,-10,0)"
         inkscape:connector-curvature="0" />
    </marker>
    <linearGradient
       inkscape:collect="always"
       id="linearGradient3790">
      <stop
         style="stop-color:#ff0000;stop-opacity:1;"
         offset="0"
         id="stop3792" />
      <stop
         style="stop-color:#ff0000;stop-opacity:0;"
         offset="1"
         id="stop3794" />
    </linearGradient>
    <radialGradient
       inkscape:collect="always"
       xlink:href="#linearGradient3790"
       id="radialGradient3796"
       cx="309.10669"
       cy="487.68692"
       fx="309.10669"
       fy="487.68692"
       r="115.17954"
       gradientUnits="userSpaceOnUse" />
    <radialGradient
       inkscape:collect="always"
       xlink:href="#linearGradient3790"
       id="radialGradient9017"
       gradientUnits="userSpaceOnUse"
       cx="309.10669"
       cy="487.68692"
       fx="309.10669"
       fy="487.68692"
       r="115.17954"
       gradientTransform="translate(-220.16185,269.0694)" />
    <radialGradient
       inkscape:collect="always"
       xlink:href="#linearGradient9141"
       id="radialGradient9147"
       cx="309.10669"
       cy="487.68692"
       fx="309.10669"
       fy="487.68692"
       r="116.14631"
       gradientUnits="userSpaceOnUse" />
  </defs>
  <sodipodi:namedview
     id="base"
     pagecolor="#ffffff"
     bordercolor="#666666"
     borderopacity="1.0"
     inkscape:pageopacity="0.0"
     inkscape:pageshadow="2"
     inkscape:zoom="0.86401435"
     inkscape:cx="363.17532"
     inkscape:cy="301.23792"
     inkscape:document-units="mm"
     inkscape:current-layer="layer1"
     showgrid="false"
     inkscape:window-width="1920"
     inkscape:window-height="995"
     inkscape:window-x="0"
     inkscape:window-y="0"
     inkscape:window-maximized="1"
     showguides="true"
     inkscape:guide-bbox="true"
     units="mm"
     fit-margin-top="0"
     fit-margin-left="0"
     fit-margin-right="0"
     fit-margin-bottom="0" />
  <metadata
     id="metadata4512">
    <rdf:RDF>
      <cc:Work
         rdf:about="">
        <dc:format>image/svg+xml</dc:format>
        <dc:type
           rdf:resource="http://purl.org/dc/dcmitype/StillImage" />
        <dc:title></dc:title>
      </cc:Work>
    </rdf:RDF>
  </metadata>
  <g
     inkscape:label="Layer 1"
     inkscape:groupmode="layer"
     id="layer1"
     transform="translate(356.02108,-697.68827)">
    <circle
       transform="matrix(2.5859471,0,0,2.5859471,-800.96722,-209.05688)"
       id="path9131"
       style="fill:url(#radialGradient9147);fill-opacity:1;stroke:#000000;stroke-width:0.15209402;stroke-miterlimit:4;stroke-dasharray:none;stroke-opacity:1"
       cx="309.10669"
       cy="487.68692"
       r="115.17954" />
    <circle
       transform="matrix(2.5833146,0,0,2.5931784,-800.15352,-213.71965)"
       id="path3788"
       style="fill:url(#radialGradient9017);fill-opacity:1;stroke:none"
       cx="309.10669"
       cy="487.68692"
       r="115.17954" />
    <text
       xml:space="preserve"
       style="font-style:normal;font-weight:normal;line-height:0%;font-family:sans-serif;letter-spacing:0px;word-spacing:0px;fill:#000000;fill-opacity:1;stroke:none"
       x="-280.97061"
       y="1039.6281"
       id="text6305"><tspan
         sodipodi:role="line"
         id="tspan6307"
         x="-280.97061"
         y="1039.6281"
         style="font-size:32px;line-height:1.25;font-family:sans-serif">HFS</tspan></text>
    <text
       id="text6309"
       y="1041.4159"
       x="227.59439"
       style="font-style:normal;font-weight:normal;line-height:0%;font-family:sans-serif;letter-spacing:0px;word-spacing:0px;fill:#000000;fill-opacity:1;stroke:none"
       xml:space="preserve"><tspan
         y="1041.4159"
         x="227.59439"
         id="tspan6311"
         sodipodi:role="line"
         style="font-size:32px;line-height:1.25;font-family:sans-serif">LFS</tspan></text>
    <circle
       style="fill:none;stroke:#000000;stroke-width:1.63686037;stroke-miterlimit:4;stroke-dasharray:none;stroke-opacity:1"
       id="path4528"
       transform="matrix(1.4523101,-2.6872943,2.6872943,1.4523101,-1761.1107,1174.4637)"
       cx="309.10669"
       cy="487.68692"
       r="115.17954" />
    <text
       xml:space="preserve"
       style="font-style:normal;font-weight:normal;font-size:32px;line-height:0%;font-family:sans-serif;letter-spacing:0px;word-spacing:0px;fill:#000000;fill-opacity:1;stroke:none"
       id="text9170"
       transform="translate(3.52737,-7.05474)"><textPath
         xlink:href="#path4528"
         id="textPath9199"
         style="font-family:sans-serif"><tspan
   id="tspan9172"
   style="font-family:sans-serif">chamber</tspan></textPath></text>
    <text
       id="text9202"
       style="font-style:normal;font-weight:normal;font-size:32px;line-height:0%;font-family:sans-serif;letter-spacing:0px;word-spacing:0px;fill:#000000;fill-opacity:1;stroke:none"
       xml:space="preserve"
       transform="translate(-70.401767,53.447358)"><textPath
         id="textPath9204"
         xlink:href="#path4528"
         style="font-family:sans-serif">plasma radius</textPath></text>
    <g
       id="g3874"
       transform="matrix(1.0137095,0,0,1,4.5380381,0)">
      <g
         id="g3852">
        <path
           style="display:inline;fill:none;stroke:#000000;stroke-width:0.93749994px;stroke-linecap:butt;stroke-linejoin:miter;stroke-opacity:1"
           d="m -65.981647,728.72202 h 24.10714 c 1.79428,-14.9199 17.13046,-16.1037 17.13046,3.4927 0,10.7526 -6.94713,10.76 -6.94713,-0.1445 0,-19.4519 17.11508,-19.5111 17.11508,-0.098 0,11.0104 -6.86642,11.0696 -6.86642,0.2034 0,-19.5568 17.0959301,-19.616 17.0959301,-0.1081 0,10.9151 -6.8995201,10.9757 -6.8995201,0.035 0,-19.4831 17.4543301,-19.4831 17.4543301,0.072 0,10.8683 -6.89970999,10.8683 -6.89970999,-0.084 0,-19.471 14.79429989,-18.2872 16.63274989,-3.0113 l 27.98224,-0.021"
           id="path4550-3"
           inkscape:connector-curvature="0"
           sodipodi:nodetypes="ccsssssssscc" />
        <path
           sodipodi:nodetypes="ccsssssssscc"
           inkscape:connector-curvature="0"
           id="path137"
           d="m 60.403564,732.17776 22.272093,9.2254 c 7.367297,-13.09755 21.989093,-8.32234 14.489887,9.78238 -4.11485,9.9341 -10.535989,7.28239 -6.36302,-2.79206 7.44392,-17.97121 23.278846,-11.47624 15.849776,6.45912 -4.2135,10.17229 -10.579896,7.59931 -6.42159,-2.43975 7.48407,-18.06812 23.3013,-11.58049 15.83595,6.44246 -4.17703,10.08424 -10.57454,7.49989 -6.38772,-2.60799 7.45586,-18.00004 23.58156,-11.32056 16.09815,6.746 -4.15912,10.041 -10.53362,7.40059 -6.34236,-2.71801 7.45123,-17.98886 20.66636,-11.23364 16.51903,3.583 l 25.86026,10.68893"
           style="display:inline;fill:none;stroke:#000000;stroke-width:0.93749994px;stroke-linecap:butt;stroke-linejoin:miter;stroke-opacity:1" />
        <path
           style="display:inline;fill:none;stroke:#000000;stroke-width:0.93749994px;stroke-linecap:butt;stroke-linejoin:miter;stroke-opacity:1"
           d="m 172.66454,778.88744 17.04632,17.04632 c 11.81872,-9.28122 23.50011,0.72602 9.64336,14.58278 -7.60324,7.60323 -12.52083,2.6961 -4.81019,-5.01455 13.75457,-13.75457 25.89862,-1.69423 12.17149,12.03289 -7.78553,7.78554 -12.68268,2.9721 -4.99912,-4.71146 13.82874,-13.82874 25.95926,-1.78196 12.16509,12.01221 -7.71815,7.71814 -12.63969,2.88229 -4.90345,-4.85394 13.77663,-13.77664 26.11871,-1.43457 12.29116,12.39298 -7.68505,7.68505 -12.56388,2.80621 -4.81943,-4.93823 13.76807,-13.76808 23.39215,-2.46986 13.89044,9.63182 l 19.80128,19.77158"
           id="path3842"
           inkscape:connector-curvature="0"
           sodipodi:nodetypes="ccsssssssscc" />
        <path
           sodipodi:nodetypes="ccsssssssscc"
           inkscape:connector-curvature="0"
           id="path3844"
           d="m 259.97221,864.68444 9.2254,22.27209 c 14.47084,-4.0519 21.43343,9.66386 3.32871,17.16309 -9.9341,4.11483 -12.59949,-2.30065 -2.52504,-6.47362 17.97121,-7.44392 24.57555,8.34571 6.64019,15.77476 -10.17229,4.21351 -12.85464,-2.10759 -2.81558,-6.2659 18.06812,-7.48406 24.66515,8.28786 6.6422,15.75322 -10.08424,4.17702 -12.78055,-2.17412 -2.67267,-6.36093 18.00004,-7.45587 24.67952,8.66983 6.61296,16.15325 -10.041,4.15912 -12.6814,-2.21539 -2.5628,-6.40665 17.98886,-7.45123 22.55671,6.66994 9.14716,14.21428 l 10.72775,25.84418"
           style="display:inline;fill:none;stroke:#000000;stroke-width:0.93749994px;stroke-linecap:butt;stroke-linejoin:miter;stroke-opacity:1" />
      </g>
      <g
         transform="rotate(-90,-9.0815949,1039.3789)"
         id="g3862">
        <path
           sodipodi:nodetypes="ccsssssssscc"
           inkscape:connector-curvature="0"
           id="path3854"
           d="m -65.981647,728.72202 h 24.10714 c 1.79428,-14.9199 17.13046,-16.1037 17.13046,3.4927 0,10.7526 -6.94713,10.76 -6.94713,-0.1445 0,-19.4519 17.11508,-19.5111 17.11508,-0.098 0,11.0104 -6.86642,11.0696 -6.86642,0.2034 0,-19.5568 17.0959301,-19.616 17.0959301,-0.1081 0,10.9151 -6.8995201,10.9757 -6.8995201,0.035 0,-19.4831 17.4543301,-19.4831 17.4543301,0.072 0,10.8683 -6.89970999,10.8683 -6.89970999,-0.084 0,-19.471 14.79429989,-18.2872 16.63274989,-3.0113 l 27.98224,-0.021"
           style="display:inline;fill:none;stroke:#000000;stroke-width:0.93749994px;stroke-linecap:butt;stroke-linejoin:miter;stroke-opacity:1" />
        <path
           style="display:inline;fill:none;stroke:#000000;stroke-width:0.93749994px;stroke-linecap:butt;stroke-linejoin:miter;stroke-opacity:1"
           d="m 60.403564,732.17776 22.272093,9.2254 c 7.367297,-13.09755 21.989093,-8.32234 14.489887,9.78238 -4.11485,9.9341 -10.535989,7.28239 -6.36302,-2.79206 7.44392,-17.97121 23.278846,-11.47624 15.849776,6.45912 -4.2135,10.17229 -10.579896,7.59931 -6.42159,-2.43975 7.48407,-18.06812 23.3013,-11.58049 15.83595,6.44246 -4.17703,10.08424 -10.57454,7.49989 -6.38772,-2.60799 7.45586,-18.00004 23.58156,-11.32056 16.09815,6.746 -4.15912,10.041 -10.53362,7.40059 -6.34236,-2.71801 7.45123,-17.98886 20.66636,-11.23364 16.51903,3.583 l 25.86026,10.68893"
           id="path3856"
           inkscape:connector-curvature="0"
           sodipodi:nodetypes="ccsssssssscc" />
        <path
           sodipodi:nodetypes="ccsssssssscc"
           inkscape:connector-curvature="0"
           id="path3858"
           d="m 172.66454,778.88744 17.04632,17.04632 c 11.81872,-9.28122 23.50011,0.72602 9.64336,14.58278 -7.60324,7.60323 -12.52083,2.6961 -4.81019,-5.01455 13.75457,-13.75457 25.89862,-1.69423 12.17149,12.03289 -7.78553,7.78554 -12.68268,2.9721 -4.99912,-4.71146 13.82874,-13.82874 25.95926,-1.78196 12.16509,12.01221 -7.71815,7.71814 -12.63969,2.88229 -4.90345,-4.85394 13.77663,-13.77664 26.11871,-1.43457 12.29116,12.39298 -7.68505,7.68505 -12.56388,2.80621 -4.81943,-4.93823 13.76807,-13.76808 23.39215,-2.46986 13.89044,9.63182 l 19.80128,19.77158"
           style="display:inline;fill:none;stroke:#000000;stroke-width:0.93749994px;stroke-linecap:butt;stroke-linejoin:miter;stroke-opacity:1" />
        <path
           style="display:inline;fill:none;stroke:#000000;stroke-width:0.93749994px;stroke-linecap:butt;stroke-linejoin:miter;stroke-opacity:1"
           d="m 259.97221,864.68444 9.2254,22.27209 c 14.47084,-4.0519 21.43343,9.66386 3.32871,17.16309 -9.9341,4.11483 -12.59949,-2.30065 -2.52504,-6.47362 17.97121,-7.44392 24.57555,8.34571 6.64019,15.77476 -10.17229,4.21351 -12.85464,-2.10759 -2.81558,-6.2659 18.06812,-7.48406 24.66515,8.28786 6.6422,15.75322 -10.08424,4.17702 -12.78055,-2.17412 -2.67267,-6.36093 18.00004,-7.45587 24.67952,8.66983 6.61296,16.15325 -10.041,4.15912 -12.6814,-2.21539 -2.5628,-6.40665 17.98886,-7.45123 22.55671,6.66994 9.14716,14.21428 l 10.72775,25.84418"
           id="path3860"
           inkscape:connector-curvature="0"
           sodipodi:nodetypes="ccsssssssscc" />
      </g>
    </g>
    <g
       id="g3896"
       transform="matrix(-1.0068544,0,0,-1.0286066,-9.9001091,2119.1356)">
      <g
         id="g3884">
        <path
           sodipodi:nodetypes="ccsssssssscc"
           inkscape:connector-curvature="0"
           id="path3876"
           d="m -65.981647,728.72202 h 24.10714 c 1.79428,-14.9199 17.13046,-16.1037 17.13046,3.4927 0,10.7526 -6.94713,10.76 -6.94713,-0.1445 0,-19.4519 17.11508,-19.5111 17.11508,-0.098 0,11.0104 -6.86642,11.0696 -6.86642,0.2034 0,-19.5568 17.0959301,-19.616 17.0959301,-0.1081 0,10.9151 -6.8995201,10.9757 -6.8995201,0.035 0,-19.4831 17.4543301,-19.4831 17.4543301,0.072 0,10.8683 -6.89970999,10.8683 -6.89970999,-0.084 0,-19.471 14.79429989,-18.2872 16.63274989,-3.0113 l 27.98224,-0.021"
           style="display:inline;fill:none;stroke:#000000;stroke-width:0.93749994px;stroke-linecap:butt;stroke-linejoin:miter;stroke-opacity:1" />
        <path
           style="display:inline;fill:none;stroke:#000000;stroke-width:0.93749994px;stroke-linecap:butt;stroke-linejoin:miter;stroke-opacity:1"
           d="m 60.403564,732.17776 22.272093,9.2254 c 7.367297,-13.09755 21.989093,-8.32234 14.489887,9.78238 -4.11485,9.9341 -10.535989,7.28239 -6.36302,-2.79206 7.44392,-17.97121 23.278846,-11.47624 15.849776,6.45912 -4.2135,10.17229 -10.579896,7.59931 -6.42159,-2.43975 7.48407,-18.06812 23.3013,-11.58049 15.83595,6.44246 -4.17703,10.08424 -10.57454,7.49989 -6.38772,-2.60799 7.45586,-18.00004 23.58156,-11.32056 16.09815,6.746 -4.15912,10.041 -10.53362,7.40059 -6.34236,-2.71801 7.45123,-17.98886 20.66636,-11.23364 16.51903,3.583 l 25.86026,10.68893"
           id="path3878"
           inkscape:connector-curvature="0"
           sodipodi:nodetypes="ccsssssssscc" />
        <path
           sodipodi:nodetypes="ccsssssssscc"
           inkscape:connector-curvature="0"
           id="path3880"
           d="m 172.66454,778.88744 17.04632,17.04632 c 11.81872,-9.28122 23.50011,0.72602 9.64336,14.58278 -7.60324,7.60323 -12.52083,2.6961 -4.81019,-5.01455 13.75457,-13.75457 25.89862,-1.69423 12.17149,12.03289 -7.78553,7.78554 -12.68268,2.9721 -4.99912,-4.71146 13.82874,-13.82874 25.95926,-1.78196 12.16509,12.01221 -7.71815,7.71814 -12.63969,2.88229 -4.90345,-4.85394 13.77663,-13.77664 26.11871,-1.43457 12.29116,12.39298 -7.68505,7.68505 -12.56388,2.80621 -4.81943,-4.93823 13.76807,-13.76808 23.39215,-2.46986 13.89044,9.63182 l 19.80128,19.77158"
           style="display:inline;fill:none;stroke:#000000;stroke-width:0.93749994px;stroke-linecap:butt;stroke-linejoin:miter;stroke-opacity:1" />
        <path
           style="display:inline;fill:none;stroke:#000000;stroke-width:0.93749994px;stroke-linecap:butt;stroke-linejoin:miter;stroke-opacity:1"
           d="m 259.97221,864.68444 9.2254,22.27209 c 14.47084,-4.0519 21.43343,9.66386 3.32871,17.16309 -9.9341,4.11483 -12.59949,-2.30065 -2.52504,-6.47362 17.97121,-7.44392 24.57555,8.34571 6.64019,15.77476 -10.17229,4.21351 -12.85464,-2.10759 -2.81558,-6.2659 18.06812,-7.48406 24.66515,8.28786 6.6422,15.75322 -10.08424,4.17702 -12.78055,-2.17412 -2.67267,-6.36093 18.00004,-7.45587 24.67952,8.66983 6.61296,16.15325 -10.041,4.15912 -12.6814,-2.21539 -2.5628,-6.40665 17.98886,-7.45123 22.55671,6.66994 9.14716,14.21428 l 10.72775,25.84418"
           id="path3882"
           inkscape:connector-curvature="0"
           sodipodi:nodetypes="ccsssssssscc" />
      </g>
      <g
         id="g3894"
         transform="rotate(-90,-9.0815949,1039.3789)">
        <path
           style="display:inline;fill:none;stroke:#000000;stroke-width:0.93749994px;stroke-linecap:butt;stroke-linejoin:miter;stroke-opacity:1"
           d="m -65.981647,728.72202 h 24.10714 c 1.79428,-14.9199 17.13046,-16.1037 17.13046,3.4927 0,10.7526 -6.94713,10.76 -6.94713,-0.1445 0,-19.4519 17.11508,-19.5111 17.11508,-0.098 0,11.0104 -6.86642,11.0696 -6.86642,0.2034 0,-19.5568 17.0959301,-19.616 17.0959301,-0.1081 0,10.9151 -6.8995201,10.9757 -6.8995201,0.035 0,-19.4831 17.4543301,-19.4831 17.4543301,0.072 0,10.8683 -6.89970999,10.8683 -6.89970999,-0.084 0,-19.471 14.79429989,-18.2872 16.63274989,-3.0113 l 27.98224,-0.021"
           id="path3886"
           inkscape:connector-curvature="0"
           sodipodi:nodetypes="ccsssssssscc" />
        <path
           sodipodi:nodetypes="ccsssssssscc"
           inkscape:connector-curvature="0"
           id="path3888"
           d="m 60.403564,732.17776 22.272093,9.2254 c 7.367297,-13.09755 21.989093,-8.32234 14.489887,9.78238 -4.11485,9.9341 -10.535989,7.28239 -6.36302,-2.79206 7.44392,-17.97121 23.278846,-11.47624 15.849776,6.45912 -4.2135,10.17229 -10.579896,7.59931 -6.42159,-2.43975 7.48407,-18.06812 23.3013,-11.58049 15.83595,6.44246 -4.17703,10.08424 -10.57454,7.49989 -6.38772,-2.60799 7.45586,-18.00004 23.58156,-11.32056 16.09815,6.746 -4.15912,10.041 -10.53362,7.40059 -6.34236,-2.71801 7.45123,-17.98886 20.66636,-11.23364 16.51903,3.583 l 25.86026,10.68893"
           style="display:inline;fill:none;stroke:#000000;stroke-width:0.93749994px;stroke-linecap:butt;stroke-linejoin:miter;stroke-opacity:1" />
        <path
           style="display:inline;fill:none;stroke:#000000;stroke-width:0.93749994px;stroke-linecap:butt;stroke-linejoin:miter;stroke-opacity:1"
           d="m 172.66454,778.88744 17.04632,17.04632 c 11.81872,-9.28122 23.50011,0.72602 9.64336,14.58278 -7.60324,7.60323 -12.52083,2.6961 -4.81019,-5.01455 13.75457,-13.75457 25.89862,-1.69423 12.17149,12.03289 -7.78553,7.78554 -12.68268,2.9721 -4.99912,-4.71146 13.82874,-13.82874 25.95926,-1.78196 12.16509,12.01221 -7.71815,7.71814 -12.63969,2.88229 -4.90345,-4.85394 13.77663,-13.77664 26.11871,-1.43457 12.29116,12.39298 -7.68505,7.68505 -12.56388,2.80621 -4.81943,-4.93823 13.76807,-13.76808 23.39215,-2.46986 13.89044,9.63182 l 19.80128,19.77158"
           id="path3890"
           inkscape:connector-curvature="0"
           sodipodi:nodetypes="ccsssssssscc" />
        <path
           sodipodi:nodetypes="ccsssssssscc"
           inkscape:connector-curvature="0"
           id="path3892"
           d="m 259.97221,864.68444 9.2254,22.27209 c 14.47084,-4.0519 21.43343,9.66386 3.32871,17.16309 -9.9341,4.11483 -12.59949,-2.30065 -2.52504,-6.47362 17.97121,-7.44392 24.57555,8.34571 6.64019,15.77476 -10.17229,4.21351 -12.85464,-2.10759 -2.81558,-6.2659 18.06812,-7.48406 24.66515,8.28786 6.6422,15.75322 -10.08424,4.17702 -12.78055,-2.17412 -2.67267,-6.36093 18.00004,-7.45587 24.67952,8.66983 6.61296,16.15325 -10.041,4.15912 -12.6814,-2.21539 -2.5628,-6.40665 17.98886,-7.45123 22.55671,6.66994 9.14716,14.21428 l 10.72775,25.84418"
           style="display:inline;fill:none;stroke:#000000;stroke-width:0.93749994px;stroke-linecap:butt;stroke-linejoin:miter;stroke-opacity:1" />
      </g>
    </g>
  </g>
</svg>
